Graph nodes:
----------------------------------------------------
   n type name          next  down   sub   pos  line
                               val  code
----------------------------------------------------
   0 eps                   0                       0
   1 sem                   3               3728    0
   2 any                  -3                       0
   3 iter                  4     0     2           0
   4 sem                   5               3881    0
   5 t    "COMPILER"       6                     119
   6 sem                   7               4167    0
   7 t    ident            8                     121
   8 sem                  10               4293    0
   9 any                 -10                       0
  10 iter                 11     0     9           0
  11 sem                  14               4508    0
  12 t    "IGNORECASE"    13                     126
  13 sem                 -18               4602    0
  14 opt                  18     0    12           0
  15 t    "CHARACTERS"    17                     127
  16 nt   SetDecl        -17                     127
  17 iter                -22     0    16           0
  18 opt                  22     0    15           0
  19 t    "TOKENS"        21                     128
  20 nt   TokenDecl      -21               4701  128
  21 iter                -26     0    20           0
  22 opt                  26     0    19           0
  23 t    "PRAGMAS"       25                     129
  24 nt   TokenDecl      -25               4740  129
  25 iter                -37     0    24           0
  26 opt                  37     0    23           0
  27 t    "COMMENTS"      28                     130
  28 sem                  29               4789    0
  29 t    "FROM"          30                     131
  30 nt   TokenExpr       31               4835  131
  31 t    "TO"            32                     132
  32 nt   TokenExpr       35               4860  132
  33 t    "NESTED"        34                     133
  34 sem                 -36               4900    0
  35 opt                  36     0    33           0
  36 sem                 -37               4954    0
  37 iter                 41     0    27           0
  38 t    "IGNORE"        39                     136
  39 nt   Set             40               5019  136
  40 sem                 -41               5033    0
  41 iter                 42     0    38           0
  42 sync                 43                       0
  43 t    "PRODUCTIONS    44                     140
  44 sem                  56               5109    0
  45 t    ident           46                     143
  46 sem                  48               5280    0
  47 nt   AttrDecl       -49               6065  155
  48 opt                  49     0    47           0
  49 sem                  51               6085    0
  50 nt   SemText        -52               6341  159
  51 opt                  52     0    50           0
  52 wt   "="             53                     160
  53 nt   Expression      54               6387  161
  54 sem                  55               6407    0
  55 wt   "."            -56                     165
  56 iter                 57     0    45           0
  57 t    "END"           58                     167
  58 t    ident           59                     167
  59 sem                  60               6603    0
  60 t    "."              0                     199
  61 t    ident           62                     206
  62 sem                  63               8819    0
  63 t    "="             64                     210
  64 nt   Set             65               9071  210
  65 sem                  66               9096    0
  66 t    "."              0                     213
  67 nt   SimSet          76               9433  220
  68 t    "+"             69                     221
  69 nt   SimSet          70               9452  221
  70 sem                 -76               9472    0
  71 t    "-"             72                     222
  72 nt   SimSet          73               9502  222
  73 sem                 -76               9522    0
  74 alt                 -76    75    68         221
  75 alt                 -76     0    71         222
  76 iter                  0     0    74           0
  77 sem                  82               9731    0
  78 t    ident           79                     230
  79 sem                   0               9789    0
  80 t    string          81                     233
  81 sem                   0              10014    0
  82 alt                   0    83    78         230
  83 alt                   0    90    80         233
  84 nt   Char            85              10813  248
  85 sem                  89              10841    0
  86 t    ".."            87                     249
  87 nt   Char            88              10871  249
  88 sem                   0              10892    0
  89 opt                   0     0    86           0
  90 alt                   0    93    84         248
  91 t    "ANY"           92                     251
  92 sem                   0              10978    0
  93 alt                   0     0    91         251
  94 t    char            95                     259
  95 sem                   0              11166    0
  96 nt   Sym             97              11940  276
  97 sem                  98              11969    0
  98 sync                104                       0
  99 t    "="            100                     285
 100 nt   TokenExpr      101              12433  285
 101 t    "."            102                     285
 102 sem                -108              12450    0
 103 sem                -108              13255    0
 104 alt                 108   105    99         285
 105 alt                -108     0   103           0
 106 nt   SemText        107              13423  300
 107 sem                   0              13445    0
 108 opt                   0     0   106           0
 109 t    "<"            110                     308
 110 sem                 116              13678    0
 111 any                -116                       0
 112 t    badString      113                     310
 113 sem                -116              13785    0
 114 alt                -116   115   111           0
 115 alt                -116     0   112         310
 116 iter                117     0   114           0
 117 t    ">"            118                     312
 118 sem                   0              13866    0
 119 t    "<."           120                     314
 120 sem                 126              14014    0
 121 any                -126                       0
 122 t    badString      123                     316
 123 sem                -126              14121    0
 124 alt                -126   125   121           0
 125 alt                -126     0   122         316
 126 iter                127     0   124           0
 127 t    ".>"           128                     318
 128 sem                   0              14202    0
 129 alt                   0   130   109         308
 130 alt                   0     0   119         314
 131 nt   Term           132              14473  326
 132 sem                 136              14501    0
 133 wt   "|"            134                     328
 134 nt   Term           135              14580  329
 135 sem                -136              14606    0
 136 iter                  0     0   133           0
 137 sem                 138              14976    0
 138 nt   Resolver       139              15052  340
 139 sem                -141              15073    0
 140 opt                 141     0   137           0
 141 nt   Factor         142              15112  342
 142 sem                 145              15136    0
 143 nt   Factor         144              15242  344
 144 sem                -145              15264    0
 145 iter               -149     0   143           0
 146 sem                -149              15332    0
 147 alt                 149   148   140           0
 148 alt                -149     0   146           0
 149 sem                   0              15427    0
 150 t    "WEAK"         151                     357
 151 sem                -153              15882    0
 152 opt                 153     0   150           0
 153 nt   Sym            154              15910  359
 154 sem                 157              15937    0
 155 nt   Attribs        156              17565  384
 156 sem                -158              17588    0
 157 opt                 158     0   155           0
 158 sem                -183              17690    0
 159 t    "("            160                     390
 160 nt   Expression     161              18028  390
 161 t    ")"           -183                     390
 162 alt                 183   163   152           0
 163 alt                -183   168   159         390
 164 t    "["            165                     391
 165 nt   Expression     166              18053  391
 166 t    "]"            167                     391
 167 sem                -183              18067    0
 168 alt                -183   173   164         391
 169 t    "{"            170                     392
 170 nt   Expression     171              18108  392
 171 t    "}"            172                     392
 172 sem                -183              18122    0
 173 alt                -183   176   169         392
 174 nt   SemText        175              18159  393
 175 sem                -183              18180    0
 176 alt                -183   179   174         393
 177 t    "ANY"          178                     397
 178 sem                -183              18410    0
 179 alt                -183   182   177         397
 180 t    "SYNC"         181                     400
 181 sem                -183              18625    0
 182 alt                -183     0   180         400
 183 sem                   0              18806    0
 184 t    "IF"           185                     412
 185 t    "("            186                     412
 186 sem                 187              19147    0
 187 nt   Condition      188                     413
 188 sem                   0              19246    0
 189 t    "("            190                     418
 190 nt   Condition     -194                     418
 191 any                -194                       0
 192 alt                -194   193   189         418
 193 alt                -194     0   191           0
 194 iter                195     0   192           0
 195 t    ")"              0                     418
 196 nt   TokenTerm      197              19593  424
 197 sem                 201              19616    0
 198 wt   "|"            199                     426
 199 nt   TokenTerm      200              19700  427
 200 sem                -201              19721    0
 201 iter                  0     0   198           0
 202 nt   TokenFactor    205              20041  437
 203 nt   TokenFactor    204              20061  438
 204 sem                -205              20076    0
 205 iter                211     0   203           0
 206 t    "CONTEXT"      207                     440
 207 t    "("            208                     441
 208 nt   TokenExpr      209              20144  441
 209 sem                 210              20157    0
 210 t    ")"              0                     443
 211 opt                   0     0   206           0
 212 sem                 218              20493    0
 213 nt   Sym            214              20513  452
 214 sem                -230              20540    0
 215 t    "("            216                     467
 216 nt   TokenExpr      217              21527  467
 217 t    ")"           -230                     467
 218 alt                 230   219   213         452
 219 alt                -230   224   215         467
 220 t    "["            221                     468
 221 nt   TokenExpr      222              21551  468
 222 t    "]"            223                     468
 223 sem                -230              21566    0
 224 alt                -230   229   220         468
 225 t    "{"            226                     469
 226 nt   TokenExpr      227              21650  469
 227 t    "}"            228                     469
 228 sem                -230              21665    0
 229 alt                -230     0   225         469
 230 sem                   0              21771    0
 231 sem                 241              22082    0
 232 t    ident          233                     478
 233 sem                   0              22167    0
 234 t    string         235                     479
 235 sem                -240              22278    0
 236 t    char           237                     480
 237 sem                -240              22390    0
 238 alt                 240   239   234         479
 239 alt                -240     0   236         480
 240 sem                   0              22708    0
 241 alt                   0   242   232         478
 242 alt                   0     0   238         479
 243 t    "<"            244                     502
 244 sem                 250              23248    0
 245 any                -250                       0
 246 t    badString      247                     504
 247 sem                -250              23356    0
 248 alt                -250   249   245           0
 249 alt                -250     0   246         504
 250 iter                251     0   248           0
 251 t    ">"            252                     506
 252 sem                   0              23437    0
 253 t    "<."           254                     507
 254 sem                 260              23541    0
 255 any                -260                       0
 256 t    badString      257                     509
 257 sem                -260              23649    0
 258 alt                -260   259   255           0
 259 alt                -260     0   256         509
 260 iter                261     0   258           0
 261 t    ".>"           262                     511
 262 sem                   0              23730    0
 263 alt                   0   264   243         502
 264 alt                   0     0   253         507
 265 t    "(."           266                     518
 266 sem                 275              23959    0
 267 any                -275                       0
 268 t    badString      269                     520
 269 sem                -275              24065    0
 270 alt                -275   271   267           0
 271 alt                -275   274   268         520
 272 t    "(."           273                     521
 273 sem                -275              24146    0
 274 alt                -275     0   272         521
 275 iter                276     0   270           0
 276 t    ".)"           277                     523
 277 sem                   0              24242    0

